…
That's a lot of outputs, and many of them are matrices of varying shapes. If you want to work with this using tidy tools (and if you've been listening, you hopefully do), we need to tidy it:


{% highlight r %}
library(biobroom)
tidy(eb, intercept = TRUE)
{% endhighlight %}



{% highlight text %}
## # A tibble: 65,074 x 6
##               gene        term   estimate statistic     p.value        lod
##              <chr>       <chr>      <dbl>     <dbl>       <dbl>      <dbl>
## 1    Q0017_Ammonia (Intercept)  0.3926667  1.591294 0.155459427 -6.3498508
## 2    Q0017_Glucose (Intercept) -0.3533333 -3.172498 0.015599597 -4.0295194
## 3    Q0017_Leucine (Intercept)  0.3873333  2.339366 0.051800996 -5.2780422
## 4  Q0017_Phosphate (Intercept) -0.4493333 -2.732529 0.029158254 -4.6871409
## 5    Q0017_Sulfate (Intercept)  1.9140000  3.937061 0.005595522 -2.9298317
## 6     Q0017_Uracil (Intercept)  1.1846667  2.476906 0.042315927 -5.0718352
## 7    Q0045_Ammonia (Intercept) -1.5060000 -5.842285 0.000629533 -0.5396668
## 8    Q0045_Glucose (Intercept) -0.8513333 -5.235045 0.001195959 -1.2455443
## 9    Q0045_Leucine (Intercept) -0.4440000 -1.807071 0.113591371 -6.0543398
## 10 Q0045_Phosphate (Intercept) -0.7546667 -4.488406 0.002819261 -2.1846537
## # ... with 65,064 more rows
…
Now all we've got to do split the systematic name and nutrient back up. tidyr's `separate()` can do this:


{% highlight r %}
td <- tidy(eb, intercept = TRUE) %>%
  separate(gene, c("systematic_name", "nutrient"), sep = "_")

td
{% endhighlight %}



{% highlight text %}
## # A tibble: 65,074 x 7
##    systematic_name  nutrient        term   estimate statistic     p.value
## *            <chr>     <chr>       <chr>      <dbl>     <dbl>       <dbl>
## 1            Q0017   Ammonia (Intercept)  0.3926667  1.591294 0.155459427
## 2            Q0017   Glucose (Intercept) -0.3533333 -3.172498 0.015599597
## 3            Q0017   Leucine (Intercept)  0.3873333  2.339366 0.051800996
## 4            Q0017 Phosphate (Intercept) -0.4493333 -2.732529 0.029158254
## 5            Q0017   Sulfate (Intercept)  1.9140000  3.937061 0.005595522
## 6            Q0017    Uracil (Intercept)  1.1846667  2.476906 0.042315927
## 7            Q0045   Ammonia (Intercept) -1.5060000 -5.842285 0.000629533
## 8            Q0045   Glucose (Intercept) -0.8513333 -5.235045 0.001195959
## 9            Q0045   Leucine (Intercept) -0.4440000 -1.807071 0.113591371
## 10           Q0045 Phosphate (Intercept) -0.7546667 -4.488406 0.002819261
## # ... with 65,064 more rows, and 1 more variables: lod <dbl>
…
