…
I'll give a few examples of survey analyses using the [dplyr](https://github.com/hadley/dplyr) package. For instance, you could discover the most common occupations of survey respondents:


{% highlight r %}
library(stacksurveyr)
library(dplyr)

stack_survey %>%
  count(occupation, sort = TRUE)
{% endhighlight %}



{% highlight text %}
## # A tibble: 28 x 2
##                             occupation     n
##                                  <chr> <int>
## 1             Full-stack web developer 13886
## 2                                 <NA>  6511
## 3               Back-end web developer  6061
## 4                              Student  5619
## 5                    Desktop developer  3390
## 6              Front-end web developer  2873
## 7                                other  2585
## 8  Enterprise level services developer  1471
## 9           Mobile developer - Android  1462
## 10                    Mobile developer  1373
## # ... with 18 more rows
…
{% highlight r %}
salary_by_occupation <- stack_survey %>%
  filter(occupation != "other") %>%
  group_by(occupation) %>%
  summarize(average_salary = mean(salary_midpoint, na.rm = TRUE)) %>%
  arrange(desc(average_salary))

salary_by_occupation
{% endhighlight %}



{% highlight text %}
## # A tibble: 26 x 2
##                                               occupation average_salary
##                                                    <chr>          <dbl>
## 1                 Executive (VP of Eng., CTO, CIO, etc.)      103073.93
## 2                                    Engineering manager      101047.08
## 3                    Enterprise level services developer       79855.62
## 4                                                 DevOps       68731.96
## 5                                        Product manager       68598.62
## 6                                          Growth hacker       67878.79
## 7                             Machine learning developer       67041.80
## 8                                         Data scientist       66508.75
## 9       Business intelligence or data warehousing expert       65660.92
## 10 Developer with a statistics or mathematics background       65625.76
## # ... with 16 more rows
…
In these cases, the responses are given delimited by `; `. Often, these columns are easier to work with and analyze when they are "unnested" into one user-answer pair per row. The package provides the `stack_multi` function as a shortcut for that unnesting. For example, consider the `tech_do` column (""Which of the following languages or technologies have you done extensive development with in the last year?"):  


{% highlight r %}
stack_multi("tech_do")
{% endhighlight %}



{% highlight text %}
## # A tibble: 225,075 x 3
##    respondent_id  column                 answer
##            <int>   <chr>                  <chr>
## 1           4637 tech_do                    iOS
## 2           4637 tech_do            Objective-C
## 3          31743 tech_do                Android
## 4          31743 tech_do Arduino / Raspberry Pi
## 5          31743 tech_do              AngularJS
## 6          31743 tech_do                      C
## 7          31743 tech_do                    C++
## 8          31743 tech_do                     C#
## 9          31743 tech_do              Cassandra
## 10         31743 tech_do           CoffeeScript
## # ... with 225,065 more rows
{% endhighlight %}

Using this data, we could find the most common answers:


{% highlight r %}
stack_multi("tech_do") %>%
  count(tech = answer, sort = TRUE)
{% endhighlight %}



{% highlight text %}
## # A tibble: 42 x 2
##          tech     n
##         <chr> <int>
## 1  JavaScript 27385
## 2         SQL 21976
## 3        Java 17942
## 4          C# 15283
## 5         PHP 12780
## 6      Python 12282
## 7         C++  9589
## 8  SQL Server  9306
## 9   AngularJS  8823
## 10    Android  8601
## # ... with 32 more rows
…
We can join this with the `stack_survey` dataset using the `respondent_id` column. For example, we could look at the most common development technologies used by data scientists:


{% highlight r %}
stack_survey %>%
  filter(occupation == "Data scientist") %>%
  inner_join(stack_multi("tech_do"), by = "respondent_id") %>%
  count(answer, sort = TRUE)
{% endhighlight %}



{% highlight text %}
## # A tibble: 42 x 2
##        answer     n
##         <chr> <int>
## 1      Python   507
## 2         SQL   356
## 3           R   352
## 4        Java   240
## 5  JavaScript   207
## 6         C++   155
## 7           C   125
## 8      Hadoop   108
## 9  SQL Server    98
## 10      Spark    97
## # ... with 32 more rows
…
