…
reg <- "([^A-Za-z\\d#@']|'(?![A-Za-z\\d#@]))"
tweet_words <- tweets %>%
  filter(!str_detect(text, '^"')) %>%
  mutate(text = str_replace_all(text, "https://t.co/[A-Za-z\\d]+|&amp;", "")) %>%
  unnest_tokens(word, text, token = "regex", pattern = reg) %>%
  filter(!word %in% stop_words$word,
         str_detect(word, "[a-z]"))

tweet_words
{% endhighlight %}



{% highlight text %}
## # A tibble: 8,753 x 4
##                    id source             created                   word
##                 <chr>  <chr>              <time>                  <chr>
## 1  676494179216805888 iPhone 2015-12-14 20:09:15                 record
## 2  676494179216805888 iPhone 2015-12-14 20:09:15                 health
## 3  676494179216805888 iPhone 2015-12-14 20:09:15 #makeamericagreatagain
## 4  676494179216805888 iPhone 2015-12-14 20:09:15             #trump2016
## 5  676509769562251264 iPhone 2015-12-14 21:11:12               accolade
## 6  676509769562251264 iPhone 2015-12-14 21:11:12             @trumpgolf
## 7  676509769562251264 iPhone 2015-12-14 21:11:12                 highly
## 8  676509769562251264 iPhone 2015-12-14 21:11:12              respected
## 9  676509769562251264 iPhone 2015-12-14 21:11:12                   golf
## 10 676509769562251264 iPhone 2015-12-14 21:11:12                odyssey
## # ... with 8,743 more rows
…
Since we've observed a difference in sentiment between the Android and iPhone tweets, let's try quantifying it. We'll work with the [NRC Word-Emotion Association](http://saifmohammad.com/WebPages/NRC-Emotion-Lexicon.htm) lexicon, available from the tidytext package, which associates words with 10 sentiments: **positive**, **negative**, **anger**, **anticipation**, **disgust**, **fear**, **joy**, **sadness**, **surprise**, and **trust**.


{% highlight r %}
nrc <- sentiments %>%
  filter(lexicon == "nrc") %>%
  dplyr::select(word, sentiment)

nrc
{% endhighlight %}



{% highlight text %}
## # A tibble: 13,901 x 2
##           word sentiment
##          <chr>     <chr>
## 1       abacus     trust
## 2      abandon      fear
## 3      abandon  negative
## 4      abandon   sadness
## 5    abandoned     anger
## 6    abandoned      fear
## 7    abandoned  negative
## 8    abandoned   sadness
## 9  abandonment     anger
## 10 abandonment      fear
## # ... with 13,891 more rows
…
