…
pkg_correlations <- packages %>%
  semi_join(pkg_counts) %>%
  pairwise_cor(package, id, sort = TRUE, upper = FALSE)

pkg_correlations
{% endhighlight %}



{% highlight text %}
## # A tibble: 465 x 3
##         item1       item2 correlation
##         <chr>       <chr>       <dbl>
## 1        base    graphics   0.5813129
## 2    graphics       stats   0.4716609
## 3        base       stats   0.4495913
## 4       dplyr       tidyr   0.3822511
## 5       rstan    rstanarm   0.3791074
## 6       dplyr     ggplot2   0.3483315
## 7     ggplot2       knitr   0.3032979
## 8       dplyr       shiny   0.3027743
## 9  data.table htmlwidgets   0.2937083
## 10    ggplot2       tidyr   0.2811096
## # ... with 455 more rows
…
requirements
{% endhighlight %}



{% highlight text %}
## # A tibble: 34,781 x 2
##    Package     Requires
##      <chr>        <chr>
## 1       A3       xtable
## 2       A3      pbapply
## 3       A3 randomForest
## 4       A3        e1071
## 5   abbyyR         httr
## 6   abbyyR          XML
## 7   abbyyR         curl
## 8   abbyyR        readr
## 9   abbyyR     progress
## 10  abbyyR     testthat
## # ... with 34,771 more rows
…
{% highlight r %}
package_info <- requirements %>%
  count(Package = Requires) %>%
  rename(NRequiredBy = n) %>%
  left_join(count(requirements, Package)) %>%
  rename(NRequires = n) %>%
  replace_na(list(NRequires = 0))

package_info
{% endhighlight %}



{% highlight text %}
## # A tibble: 2,925 x 3
##               Package NRequiredBy NRequires
##                 <chr>       <int>     <dbl>
## 1              a4Base           1         0
## 2              a4Core           1         0
## 3                 abc           3         5
## 4            abc.data           2         0
## 5                 abd           1        12
## 6               abind          95         0
## 7  AcceptanceSampling           1         0
## 8             acepack           2         0
## 9                 acp           1         2
## 10                acs           3         4
## # ... with 2,915 more rows
…
Some like dplyr, ggplot2, and knitr are popular both within the hashtag and as CRAN dependencies. Some relatively new packages like purrr are popular on Twitter but haven't built up as many packages needing them, and others like plyr and foreach are a common dependency but are barely mentioned. (This isn't even counting the many packages never mentioned in the hashtag).

Since we have this dependency data, I can't resist looking for correlations just like we did with the hashtag data. What packages tend to be depended on together?


{% highlight text %}
## # A tibble: 64,770 x 3
##            item1         item2 correlation
##            <chr>         <chr>       <dbl>
## 1           R.oo   R.methodsS3   0.9031741
## 2    R.methodsS3          R.oo   0.9031741
## 3     doParallel       foreach   0.7341718
## 4        foreach    doParallel   0.7341718
## 5       timeDate    timeSeries   0.7084369
## 6     timeSeries      timeDate   0.7084369
## 7  gWidgetsRGtk2      gWidgets   0.6974373
## 8       gWidgets gWidgetsRGtk2   0.6974373
## 9           ergm       network   0.6336521
## 10       network          ergm   0.6336521
## # ... with 64,760 more rows
…
