…
{% highlight r %}
library(dplyr)

position_probs <- data_frame(position = seq_len(max_position),
                              probability = count_per_position / trials)

position_probs
{% endhighlight %}



{% highlight text %}
## # A tibble: 50 × 2
##    position probability
##       <int>       <dbl>
## 1         1    0.165390
## 2         2    0.196420
## 3         3    0.226525
## 4         4    0.264055
## 5         5    0.309345
## 6         6    0.360190
## 7         7    0.253085
## 8         8    0.268365
## 9         9    0.279775
## 10       10    0.289580
## # ... with 40 more rows
…
First, we notice that each position gets increasingly more likely up to 6, before diving back down. The pattern repeats itself more mildly up to 12, then basically stabilizes.

That the probabilities climb up to 6 makes sense, because there's only a 1/6 chance of landing on 1 (you have to get it on your first roll), but there are many ways of ending up on 6 (you could roll it directly, roll 1 then 5, two 3s, three 2s, etc). The drop to 7 then makes sense because there is no longer the 1/6 possibility of landing on it on your first roll. So what would be the best spaces to pick if you had only one coin to place?


{% highlight r %}
position_probs %>%
  arrange(desc(probability))
{% endhighlight %}



{% highlight text %}
## # A tibble: 50 × 2
##    position probability
##       <int>       <dbl>
## 1         6    0.360190
## 2         5    0.309345
## 3        12    0.291930
## 4        11    0.291425
## 5        10    0.289580
## 6        31    0.287960
## 7        39    0.287715
## 8        15    0.287640
## 9        21    0.287230
## 10       22    0.286630
## # ... with 40 more rows
…
# now add in the probabilities and sort:
best_options <- strategy_df %>%
  mutate(probability = probabilities) %>%
  arrange(desc(probability))

best_options
{% endhighlight %}



{% highlight text %}
## # A tibble: 1,140 × 4
##       V1    V2    V3 probability
##    <int> <int> <int>       <dbl>
## 1      4     5     6    0.793420
## 2      5     6     7    0.759905
## 3      3     5     6    0.755580
## 4      5     6     8    0.755060
## 5      5     6     9    0.744740
## 6      5     6    13    0.735625
## 7      5     6    14    0.731195
## 8      5     6    10    0.730910
## 9      5     6    15    0.728470
## 10     5     6    19    0.727695
## # ... with 1,130 more rows
…
> Suppose there’s an additional rule that you cannot place the coins on adjacent spaces. What is the ideal placement now?

This is straightforward with our simulation setup:


{% highlight r %}
best_options %>%
  filter(V2 - V1 > 1,
         V3 - V2 > 1)
{% endhighlight %}



{% highlight text %}
## # A tibble: 816 × 4
##       V1    V2    V3 probability
##    <int> <int> <int>       <dbl>
## 1      6     8    10    0.714270
## 2      4     6     8    0.711690
## 3      4     6    11    0.704025
## 4      4     6     9    0.701600
## 5      6     9    11    0.701550
## 6      4     6    13    0.700615
## 7      6    10    13    0.699085
## 8      4     6    14    0.697805
## 9      6    13    15    0.697280
## 10     4     6    15    0.696115
## # ... with 806 more rows
…
> What about the worst squares — where should you place your coins if you’re making a play for martyrdom?

Simply sort your strategies in ascending rather than descending order:


{% highlight r %}
best_options %>%
  arrange(probability)
{% endhighlight %}



{% highlight text %}
## # A tibble: 1,140 × 4
##       V1    V2    V3 probability
##    <int> <int> <int>       <dbl>
## 1      1     2     7    0.475250
## 2      1     2     8    0.500095
## 3      1     2     3    0.500225
## 4      1     3     7    0.501830
## 5      1     2    13    0.516585
## 6      1     7    13    0.520955
## 7      1     2    14    0.522480
## 8      1     2    19    0.523455
## 9      1     2    18    0.523985
## 10     1     2    17    0.524350
## # ... with 1,130 more rows
…
{% highlight r %}
# change > 0 to == 3 in our simulation
calculate_success_all <- function(choice) mean(colSums(boards[choice, ]) == 3)
probability_all <- apply(strategies, 2, calculate_success_all)

strategy_df %>%
  mutate(probability_all) %>%
  arrange(desc(probability_all))
{% endhighlight %}



{% highlight text %}
## # A tibble: 1,140 × 4
##       V1    V2    V3 probability_all
##    <int> <int> <int>           <dbl>
## 1      6    12    18        0.047035
## 2      6    12    17        0.040835
## 3      5    11    17        0.039325
## 4      6    11    17        0.038795
## 5      6    12    20        0.035380
## 6      6    14    20        0.035085
## 7      8    14    20        0.034615
## 8      6    12    16        0.034585
## 9      5    11    16        0.034475
## 10     4    10    16        0.034210
## # ... with 1,130 more rows
…
{% highlight r %}
library(reshape2)

melt(position_or) %>%
  tbl_df() %>%
  filter(Var2 > Var1) %>%
  mutate(probability = value / trials) %>%
  arrange(desc(probability))
{% endhighlight %}



{% highlight text %}
## # A tibble: 1,225 × 4
##     Var1  Var2  value probability
##    <int> <int>  <dbl>       <dbl>
## 1      5     6 123477    0.617385
## 2      4     6 114663    0.573315
## 3      6     8 111676    0.558380
## 4      6     9 111578    0.557890
## 5      6    10 110953    0.554765
## 6      6     7 110841    0.554205
## 7      6    13 109681    0.548405
## 8      6    14 109502    0.547510
## 9      6    15 109249    0.546245
## 10     6    31 108944    0.544720
## # ... with 1,215 more rows
…
