…
{% highlight r %}
crosses <- starting_data %>%
  select(-cluster) %>%
  crossing(fits) %>%
  mutate(likelihood = prior * VGAM::dbetabinom.ab(H, AB, alpha, beta))

crosses
{% endhighlight %}



{% highlight text %}
## # A tibble: 6,418 × 11
##     playerID               name     H    AB average cluster alpha  beta
##        <chr>              <chr> <int> <int>   <dbl>  <fctr> <dbl> <dbl>
## 1  abbotje01        Jeff Abbott    11    42  0.2619       A  12.1  43.3
## 2  abbotje01        Jeff Abbott    11    42  0.2619       B  13.6  47.9
## 3  abbotji01         Jim Abbott     2    21  0.0952       A  12.1  43.3
## 4  abbotji01         Jim Abbott     2    21  0.0952       B  13.6  47.9
## 5  abbotku01        Kurt Abbott   475  1860  0.2554       A  12.1  43.3
## 6  abbotku01        Kurt Abbott   475  1860  0.2554       B  13.6  47.9
## 7  abbotky01        Kyle Abbott     3    31  0.0968       A  12.1  43.3
## 8  abbotky01        Kyle Abbott     3    31  0.0968       B  13.6  47.9
## 9  abercre01 Reggie Abercrombie    86   386  0.2228       A  12.1  43.3
## 10 abercre01 Reggie Abercrombie    86   386  0.2228       B  13.6  47.9
## # ... with 6,408 more rows, and 3 more variables: number <int>,
## #   prior <dbl>, likelihood <dbl>
…
assignments
{% endhighlight %}



{% highlight text %}
## # A tibble: 3,209 × 11
##     playerID               name     H    AB average cluster alpha  beta
##        <chr>              <chr> <int> <int>   <dbl>  <fctr> <dbl> <dbl>
## 1  abbotje01        Jeff Abbott    11    42  0.2619       B  13.6  47.9
## 2  abbotji01         Jim Abbott     2    21  0.0952       B  13.6  47.9
## 3  abbotku01        Kurt Abbott   475  1860  0.2554       B  13.6  47.9
## 4  abbotky01        Kyle Abbott     3    31  0.0968       A  12.1  43.3
## 5  abercre01 Reggie Abercrombie    86   386  0.2228       B  13.6  47.9
## 6  abnersh01        Shawn Abner   110   531  0.2072       B  13.6  47.9
## 7  abreubo01        Bobby Abreu  1607  5395  0.2979       B  13.6  47.9
## 8  abreuto01         Tony Abreu   129   509  0.2534       B  13.6  47.9
## 9  acevejo01       Jose Acevedo     8   101  0.0792       A  12.1  43.3
## 10 aceveju01       Juan Acevedo     6    65  0.0923       A  12.1  43.3
## # ... with 3,199 more rows, and 3 more variables: number <int>,
## #   prior <dbl>, likelihood <dbl>
…
