…
{% highlight r %}
# always set a seed when simulating
set.seed(2017)

career_sim <- career %>%
  mutate(p = rbeta(n(), alpha0, beta0),
         H = rbinom(n(), AB, p))

career_sim
{% endhighlight %}



{% highlight text %}
## # A tibble: 10,388 × 4
##     playerID     H    AB     p
##        <chr> <int> <int> <dbl>
## 1  aaronha01  3817 12364 0.299
## 2  aaronto01   240   944 0.249
## 3   abadan01     5    21 0.274
## 4  abadijo01     9    49 0.198
## 5  abbated01   755  3044 0.249
## 6  abbeych01   449  1751 0.265
## 7  abbotda01     2     7 0.191
## 8  abbotfr01   138   513 0.251
## 9  abbotje01   116   596 0.244
## 10 abbotku01   570  2044 0.261
## # ... with 10,378 more rows
…
{% highlight r %}
set.seed(2017)

sim_replications <- career %>%
  crossing(replication = 1:50) %>%
  mutate(p = rbeta(n(), alpha0, beta0),
         H = rbinom(n(), AB, p))

sim_replications
{% endhighlight %}



{% highlight text %}
## # A tibble: 519,400 × 5
##     playerID     H    AB replication     p
##        <chr> <int> <int>       <int> <dbl>
## 1  aaronha01  3624 12364           1 0.299
## 2  aaronha01  3090 12364           2 0.249
## 3  aaronha01  3407 12364           3 0.274
## 4  aaronha01  2418 12364           4 0.198
## 5  aaronha01  3112 12364           5 0.249
## 6  aaronha01  3253 12364           6 0.265
## 7  aaronha01  2421 12364           7 0.191
## 8  aaronha01  3075 12364           8 0.251
## 9  aaronha01  2974 12364           9 0.244
## 10 aaronha01  3186 12364          10 0.261
## # ... with 519,390 more rows
…
### Estimations of prior parameters


{% highlight r %}
sim_replication_priors <- sim_replication_models %>%
  unnest(map(prior, tidy), .drop = TRUE)

sim_replication_priors
{% endhighlight %}



{% highlight text %}
## # A tibble: 50 × 4
##    replication alpha  beta  mean
##          <int> <dbl> <dbl> <dbl>
## 1            1  73.9   220 0.251
## 2            2  71.3   212 0.252
## 3            3  71.9   214 0.251
## 4            4  68.1   204 0.251
## 5            5  73.8   220 0.251
## 6            6  76.3   228 0.251
## 7            7  74.1   221 0.251
## 8            8  72.3   216 0.250
## 9            9  70.1   209 0.251
## 10          10  72.3   216 0.251
## # ... with 40 more rows
…
