…
word_month_counts <- title_words %>%
  filter(word_total >= 1000) %>%
  count(word, month) %>%
  complete(word, month, fill = list(n = 0)) %>%
  inner_join(stories_per_month, by = "month") %>%
  mutate(percent = n / month_total) %>%
  mutate(year = year(month) + yday(month) / 365)

word_month_counts
{% endhighlight %}



{% highlight text %}
## # A tibble: 33,480 x 6
##     word      month     n month_total     percent     year
##    <chr>     <dttm> <dbl>       <int>       <dbl>    <dbl>
##  1   2.0 2013-10-01    42       20542 0.002044592 2013.751
##  2   2.0 2013-11-01    55       23402 0.002350226 2013.836
##  3   2.0 2013-12-01    26       21945 0.001184780 2013.918
##  4   2.0 2014-01-01    25       19186 0.001303033 2014.003
##  5   2.0 2014-02-01    31       22295 0.001390446 2014.088
##  6   2.0 2014-03-01    37       21118 0.001752060 2014.164
##  7   2.0 2014-04-01    33       23673 0.001393993 2014.249
##  8   2.0 2014-05-01    28       21394 0.001308778 2014.332
##  9   2.0 2014-06-01    47       19265 0.002439657 2014.416
## 10   2.0 2014-07-01    25       19829 0.001260780 2014.499
## # ... with 33,470 more rows
…
slopes <- word_month_counts %>%
  nest(-word) %>%
  mutate(model = map(data, mod)) %>%
  unnest(map(model, tidy)) %>%
  filter(term == "year") %>%
  arrange(desc(estimate))

slopes
{% endhighlight %}



{% highlight text %}
## # A tibble: 744 x 6
##             word  term  estimate  std.error statistic       p.value
##            <chr> <chr>     <dbl>      <dbl>     <dbl>         <dbl>
##  1         trump  year 1.7570144 0.04052662  43.35458  0.000000e+00
##  2            ai  year 0.7830541 0.01756776  44.57335  0.000000e+00
##  3    blockchain  year 0.6557110 0.02682345  24.44544 5.626574e-132
##  4        neural  year 0.6270933 0.02617919  23.95388 8.418336e-127
##  5         react  year 0.6027489 0.01628292  37.01725 6.045233e-300
##  6            vr  year 0.5260498 0.02247906  23.40177 4.099556e-121
##  7           bot  year 0.5178669 0.02600166  19.91669  2.916460e-88
##  8           iot  year 0.5076088 0.02514613  20.18636  1.290270e-90
##  9 microservices  year 0.4933223 0.03180060  15.51299  2.833910e-54
## 10         slack  year 0.4718030 0.02287605  20.62432  1.660491e-94
## # ... with 734 more rows
…
