…
{% highlight r %}
he_she_words <- bigrams_separated %>%
  filter(word1 %in% c("he", "she"))

he_she_words
{% endhighlight %}



{% highlight text %}
## # A tibble: 797,388 × 4
##    story_number                      title word1      word2
##           <dbl>                      <chr> <chr>      <chr>
## 1             1                Animal Farm    he     refers
## 2             1                Animal Farm    he    accuses
## 3             1                Animal Farm    he  collapses
## 4             1                Animal Farm    he celebrates
## 5             1                Animal Farm    he  abolishes
## 6             2 A Clockwork Orange (novel)    he         is
## 7             2 A Clockwork Orange (novel)    he  describes
## 8             2 A Clockwork Orange (novel)    he      meets
## 9             2 A Clockwork Orange (novel)    he    invites
## 10            2 A Clockwork Orange (novel)    he      drugs
## # ... with 797,378 more rows
…
