…
{% highlight r %}
library(tidytext)
plot_words <- plot_text %>%
  unnest_tokens(word, text)
{% endhighlight %}


{% highlight r %}
plot_words
{% endhighlight %}



{% highlight text %}
## # A tibble: 40,330,086 × 3
##    story_number       title    word
##           <dbl>       <chr>   <chr>
## 1             1 Animal Farm     old
## 2             1 Animal Farm   major
## 3             1 Animal Farm     the
## 4             1 Animal Farm     old
## 5             1 Animal Farm    boar
## 6             1 Animal Farm      on
## 7             1 Animal Farm     the
## 8             1 Animal Farm   manor
## 9             1 Animal Farm    farm
## 10            1 Animal Farm summons
## # ... with 40,330,076 more rows
…
We're not interested in rare words that occurred in only a few plot descriptions, so we'll filter for ones occurring at least 2,500 times.


{% highlight r %}
word_averages %>%
  filter(number >= 2500) %>%
  arrange(median_position)
{% endhighlight %}



{% highlight text %}
## # A tibble: 1,640 × 3
##           word median_position number
##          <chr>           <dbl>  <int>
## 1    fictional       0.1193618   2688
## 2         year       0.2013554  18692
## 3  protagonist       0.2029450   3222
## 4      century       0.2096774   3583
## 5      wealthy       0.2356817   5686
## 6        opens       0.2408638   7319
## 7   california       0.2423856   2656
## 8      angeles       0.2580645   2889
## 9          los       0.2661747   3110
## 10     student       0.2692308   6961
## # ... with 1,630 more rows
…
peak_decile
{% endhighlight %}



{% highlight text %}
## # A tibble: 1,640 × 4
##    peak_decile        word number fraction_peak
##          <dbl>       <chr>  <int>         <dbl>
## 1          0.1   fictional   2688     0.4676339
## 2          1.0     happily   2895     0.4601036
## 3          1.0        ends  18523     0.4036603
## 4          0.1       opens   7319     0.3913103
## 5          1.0    reunited   2660     0.3853383
## 6          0.1 protagonist   3222     0.3764742
## 7          1.0      ending   4181     0.3721598
## 8          0.1        year  18692     0.3578536
## 9          0.1     century   3583     0.3530561
## 10         0.1       story  37248     0.3257356
## # ... with 1,630 more rows
…
