…
`prior` is an `ebb_prior` object, which is a statistical model object containing the details of the beta distribution. Here we can see the overall alpha and beta parameters. (We'll see later that it can store more complicated models).

The second step of empirical Bayes analysis is updating each observation based on the overall statistical model. Based on the philosophy of the [broom](https://github.com/tidyverse/broom) package, this is achieved with the augment function:


{% highlight r %}
augment(prior, data = career)
{% endhighlight %}



{% highlight text %}
## # A tibble: 9,548 × 10
##     playerID     H    AB           name .alpha1 .beta1 .fitted   .raw
##        <chr> <int> <int>          <chr>   <dbl>  <dbl>   <dbl>  <dbl>
## 1  aaronha01  3771 12364     Hank Aaron  3867.9   8868   0.304 0.3050
## 2  aaronto01   216   944   Tommie Aaron   312.9   1003   0.238 0.2288
## 3   abadan01     2    21      Andy Abad    98.9    294   0.252 0.0952
## 4  abadijo01    11    49    John Abadie   107.9    313   0.257 0.2245
## 5  abbated01   772  3044 Ed Abbaticchio   868.9   2547   0.254 0.2536
## 6  abbeych01   492  1751  Charlie Abbey   588.9   1534   0.277 0.2810
## 7  abbotda01     1     7     Dan Abbott    97.9    281   0.259 0.1429
## 8  abbotfr01   107   513    Fred Abbott   203.9    681   0.231 0.2086
## 9  abbotje01   157   596    Jeff Abbott   253.9    714   0.262 0.2634
## 10 abbotku01   523  2044    Kurt Abbott   619.9   1796   0.257 0.2559
## # ... with 9,538 more rows, and 2 more variables: .low <dbl>, .high <dbl>
…
We often want to run these two steps in sequence: estimating a model, then using it as a prior for each observation. The `ebbr` package provides a shortcut, combining them into one step with `add_ebb_estimate`:


{% highlight r %}
eb_career <- career %>%
  add_ebb_estimate(H, AB, prior_subset = AB >= 500)

eb_career
{% endhighlight %}



{% highlight text %}
## # A tibble: 9,548 × 10
##     playerID     H    AB           name .alpha1 .beta1 .fitted   .raw
##        <chr> <int> <int>          <chr>   <dbl>  <dbl>   <dbl>  <dbl>
## 1  aaronha01  3771 12364     Hank Aaron  3867.9   8868   0.304 0.3050
## 2  aaronto01   216   944   Tommie Aaron   312.9   1003   0.238 0.2288
## 3   abadan01     2    21      Andy Abad    98.9    294   0.252 0.0952
## 4  abadijo01    11    49    John Abadie   107.9    313   0.257 0.2245
## 5  abbated01   772  3044 Ed Abbaticchio   868.9   2547   0.254 0.2536
## 6  abbeych01   492  1751  Charlie Abbey   588.9   1534   0.277 0.2810
## 7  abbotda01     1     7     Dan Abbott    97.9    281   0.259 0.1429
## 8  abbotfr01   107   513    Fred Abbott   203.9    681   0.231 0.2086
## 9  abbotje01   157   596    Jeff Abbott   253.9    714   0.262 0.2634
## 10 abbotku01   523  2044    Kurt Abbott   619.9   1796   0.257 0.2559
## # ... with 9,538 more rows, and 2 more variables: .low <dbl>, .high <dbl>
…
We solved this by fitting a prior that depended on AB, through [beta-binomial regression](http://varianceexplained.org/r/beta_binomial_baseball/). The `add_ebb_estimate` function offers this option, by setting `method = "gamlss"` and providing a formula to `mu_predictors`.


{% highlight r %}
eb_career_ab <- career %>%
  add_ebb_estimate(H, AB, method = "gamlss",
                    mu_predictors = ~ log10(AB))

eb_career_ab
{% endhighlight %}



{% highlight text %}
## # A tibble: 9,548 × 14
##     playerID     H    AB           name   .mu  .sigma .alpha0 .beta0
##        <chr> <int> <int>          <chr> <dbl>   <dbl>   <dbl>  <dbl>
## 1  aaronha01  3771 12364     Hank Aaron 0.289 0.00181   159.6    393
## 2  aaronto01   216   944   Tommie Aaron 0.247 0.00181   136.5    416
## 3   abadan01     2    21      Andy Abad 0.193 0.00181   106.7    446
## 4  abadijo01    11    49    John Abadie 0.204 0.00181   112.9    440
## 5  abbated01   772  3044 Ed Abbaticchio 0.265 0.00181   146.7    406
## 6  abbeych01   492  1751  Charlie Abbey 0.257 0.00181   141.8    411
## 7  abbotda01     1     7     Dan Abbott 0.179 0.00181    99.1    454
## 8  abbotfr01   107   513    Fred Abbott 0.238 0.00181   131.4    421
## 9  abbotje01   157   596    Jeff Abbott 0.240 0.00181   132.6    420
## 10 abbotku01   523  2044    Kurt Abbott 0.259 0.00181   143.2    410
## # ... with 9,538 more rows, and 6 more variables: .alpha1 <dbl>,
## #   .beta1 <dbl>, .fitted <dbl>, .raw <dbl>, .low <dbl>, .high <dbl>
…
This method is implemented in the `add_ebb_prop_test` (notice that like `add_ebb_estimate`, it adds columns to existing data). `add_ebb_prop_test` takes the output of an earlier `add_ebb_estimate` operation, which contains posterior parameters for each observation, and appends columns to it:


{% highlight r %}
test_300 <- career %>%
  add_ebb_estimate(H, AB, method = "gamlss", mu_predictors = ~ log10(AB)) %>%
  add_ebb_prop_test(.300, sort = TRUE)

test_300
{% endhighlight %}



{% highlight text %}
## # A tibble: 9,548 × 16
##     playerID     H    AB                 name   .mu  .sigma .alpha0 .beta0
##        <chr> <int> <int>                <chr> <dbl>   <dbl>   <dbl>  <dbl>
## 1   cobbty01  4189 11434              Ty Cobb 0.287 0.00181     159    394
## 2  hornsro01  2930  8173       Rogers Hornsby 0.282 0.00181     156    397
## 3  speaktr01  3514 10195         Tris Speaker 0.285 0.00181     158    395
## 4  delahed01  2596  7505         Ed Delahanty 0.280 0.00181     155    398
## 5  willite01  2654  7706         Ted Williams 0.281 0.00181     155    398
## 6  keelewi01  2932  8591        Willie Keeler 0.283 0.00181     156    397
## 7  lajoina01  3242  9589           Nap Lajoie 0.284 0.00181     157    396
## 8  jacksjo01  1772  4981 Shoeless Joe Jackson 0.274 0.00181     151    402
## 9  gwynnto01  3141  9288           Tony Gwynn 0.284 0.00181     157    396
## 10 heilmha01  2660  7787       Harry Heilmann 0.281 0.00181     155    397
## # ... with 9,538 more rows, and 8 more variables: .alpha1 <dbl>,
## #   .beta1 <dbl>, .fitted <dbl>, .raw <dbl>, .low <dbl>, .high <dbl>,
## #   .pep <dbl>, .qvalue <dbl>
{% endhighlight %}

(Note the `sort = TRUE` argument, which sorts in order of our confidence in each player). There are now too many columns to read easily, so we'll select only a few of the most interesting ones:


{% highlight r %}
test_300 %>%
  select(name, H, AB, .fitted, .low, .high, .pep, .qvalue)
{% endhighlight %}



{% highlight text %}
## # A tibble: 9,548 × 8
##                    name     H    AB .fitted  .low .high     .pep  .qvalue
##                   <chr> <int> <int>   <dbl> <dbl> <dbl>    <dbl>    <dbl>
## 1               Ty Cobb  4189 11434   0.363 0.354 0.371 2.41e-49 2.41e-49
## 2        Rogers Hornsby  2930  8173   0.354 0.344 0.364 2.57e-27 1.28e-27
## 3          Tris Speaker  3514 10195   0.342 0.333 0.351 6.91e-21 2.30e-21
## 4          Ed Delahanty  2596  7505   0.341 0.331 0.352 5.77e-16 1.44e-16
## 5          Ted Williams  2654  7706   0.340 0.330 0.350 1.84e-15 4.84e-16
## 6         Willie Keeler  2932  8591   0.338 0.328 0.347 3.50e-15 9.86e-16
## 7            Nap Lajoie  3242  9589   0.335 0.326 0.344 1.04e-14 2.32e-15
## 8  Shoeless Joe Jackson  1772  4981   0.348 0.335 0.360 1.40e-14 3.78e-15
## 9            Tony Gwynn  3141  9288   0.335 0.326 0.344 2.68e-14 6.34e-15
## 10       Harry Heilmann  2660  7787   0.338 0.327 0.348 6.70e-14 1.24e-14
## # ... with 9,538 more rows
…
Again we select only a few interesting columns:


{% highlight r %}
compare_piazza %>%
  select(name, H, AB, .fitted, .low, .high, .pep, .qvalue)
{% endhighlight %}



{% highlight text %}
## # A tibble: 9,548 × 8
##                    name     H    AB .fitted  .low .high     .pep  .qvalue
##                   <chr> <int> <int>   <dbl> <dbl> <dbl>    <dbl>    <dbl>
## 1               Ty Cobb  4189 11434   0.363 0.354 0.371 7.00e-17 7.00e-17
## 2        Rogers Hornsby  2930  8173   0.354 0.344 0.364 4.16e-11 2.08e-11
## 3          Tris Speaker  3514 10195   0.342 0.333 0.351 1.49e-07 4.98e-08
## 4  Shoeless Joe Jackson  1772  4981   0.348 0.335 0.360 2.45e-07 9.87e-08
## 5          Ed Delahanty  2596  7505   0.341 0.331 0.352 9.41e-07 2.67e-07
## 6          Ted Williams  2654  7706   0.340 0.330 0.350 1.84e-06 5.30e-07
## 7         Willie Keeler  2932  8591   0.338 0.328 0.347 5.06e-06 1.18e-06
## 8        Harry Heilmann  2660  7787   0.338 0.327 0.348 8.64e-06 2.11e-06
## 9        Billy Hamilton  2158  6268   0.339 0.328 0.350 1.09e-05 3.09e-06
## 10           Nap Lajoie  3242  9589   0.335 0.326 0.344 1.59e-05 4.37e-06
## # ... with 9,538 more rows
…
Note that it took only about one full iteration for the parameters to get pretty close to their eventual values. We can also examine the change in cluster assignments for each observation:


{% highlight r %}
assignments <- mm$iterations$assignments

assignments
{% endhighlight %}



{% highlight text %}
## # A tibble: 11,564 × 10
##    iteration  playerID     H    AB  year isPitcher               name
##        <int>     <chr> <int> <int> <dbl>     <lgl>              <chr>
## 1          1 abbotje01    11    42  2001     FALSE        Jeff Abbott
## 2          1 abbotku01   473  1851  1997     FALSE        Kurt Abbott
## 3          1 abbotky01     2    29  1992      TRUE        Kyle Abbott
## 4          1 abercre01    86   386  2007     FALSE Reggie Abercrombie
## 5          1 abnersh01   110   531  1989     FALSE        Shawn Abner
## 6          1 abreubo01  1602  5373  2003     FALSE        Bobby Abreu
## 7          1 abreuto01   127   497  2010     FALSE         Tony Abreu
## 8          1 acevejo01     6    77  2002      TRUE       Jose Acevedo
## 9          1 ackerji01     3    28  1986      TRUE          Jim Acker
## 10         1 adamsma01   257   909  2013     FALSE         Matt Adams
## # ... with 11,554 more rows, and 3 more variables: bats <fctr>,
## #   .cluster <chr>, .likelihood <dbl>
…
