…
{% highlight r %}
# Use n() and replace = TRUE to vectorize the sampling above
crossing(trial = 1:100000,
         turn = 1:20) %>%
  mutate(move_x = sample(2, n(), replace = TRUE) *
           sample(c(1, -1), n(), replace = TRUE),
         move_y = (3 - abs(move_x)) *
           sample(c(1, -1), n(), replace = TRUE))
{% endhighlight %}



{% highlight text %}
## # A tibble: 2,000,000 x 4
##    trial  turn move_x move_y
##    <int> <int>  <dbl>  <dbl>
##  1     1     1      1     -2
##  2     1     2      2     -1
##  3     1     3      1     -2
##  4     1     4     -1     -2
##  5     1     5     -2     -1
##  6     1     6     -1     -2
##  7     1     7      1     -2
##  8     1     8     -2      1
##  9     1     9      1     -2
## 10     1    10      2     -1
## # ... with 1,999,990 more rows
…
turns
{% endhighlight %}



{% highlight text %}
## # A tibble: 2,000,000 x 6
##    trial  turn move_x move_y position_x position_y
##    <int> <int>  <dbl>  <dbl>      <dbl>      <dbl>
##  1     1     1      1      2          1          2
##  2     1     2      2      1          3          3
##  3     1     3      1      2          4          5
##  4     1     4     -2     -1          2          4
##  5     1     5     -1      2          1          6
##  6     1     6      2     -1          3          5
##  7     1     7      1     -2          4          3
##  8     1     8      2      1          6          4
##  9     1     9      2     -1          8          3
## 10     1    10      1     -2          9          1
## # ... with 1,999,990 more rows
…
