…
pixels_gathered
{% endhighlight %}



{% highlight text %}
## # A tibble: 7,840,000 x 6
##    label instance value pixel     x     y
##    <int>    <int> <int> <dbl> <dbl> <dbl>
##  1     5        1     0     0     0  28.0
##  2     0        2     0     0     0  28.0
##  3     4        3     0     0     0  28.0
##  4     1        4     0     0     0  28.0
##  5     9        5     0     0     0  28.0
##  6     2        6     0     0     0  28.0
##  7     1        7     0     0     0  28.0
##  8     3        8     0     0     0  28.0
##  9     1        9     0     0     0  28.0
## 10     4       10     0     0     0  28.0
## # ... with 7,839,990 more rows
…
{% highlight r %}
pixel_summary <- pixels_gathered %>%
  group_by(x, y, label) %>%
  summarize(mean_value = mean(value)) %>%
  ungroup()

pixel_summary
{% endhighlight %}



{% highlight text %}
## # A tibble: 7,840 x 4
##        x     y label mean_value
##    <dbl> <dbl> <int>      <dbl>
##  1     0  1.00     0          0
##  2     0  1.00     1          0
##  3     0  1.00     2          0
##  4     0  1.00     3          0
##  5     0  1.00     4          0
##  6     0  1.00     5          0
##  7     0  1.00     6          0
##  8     0  1.00     7          0
##  9     0  1.00     8          0
## 10     0  1.00     9          0
## # ... with 7,830 more rows
…
{% highlight r %}
pixels_joined <- pixels_gathered %>%
  inner_join(pixel_summary, by = c("label", "x", "y"))

image_distances <- pixels_joined %>%
  group_by(label, instance) %>%
  summarize(euclidean_distance = sqrt(mean((value - mean_value) ^ 2)))

image_distances
{% endhighlight %}



{% highlight text %}
## # A tibble: 10,000 x 3
## # Groups: label [?]
##    label instance euclidean_distance
##    <int>    <int>              <dbl>
##  1     0        2               47.2
##  2     0       22               53.1
##  3     0       35               69.4
##  4     0       38               59.5
##  5     0       52               61.4
##  6     0       57               65.7
##  7     0       64               68.1
##  8     0       69               81.1
##  9     0       70               65.2
## 10     0       76               59.6
## # ... with 9,990 more rows
…
