…
# Compute TF-IDF using "word" as term and "screen_name" as document
word_tf_idf <- word_counts %>%
  bind_tf_idf(word, screen_name, n) %>%
  arrange(desc(tf_idf))

word_tf_idf
{% endhighlight %}



{% highlight text %}
## # A tibble: 226,410 x 6
##    screen_name    word                 n      tf   idf tf_idf
##    <chr>          <chr>            <int>   <dbl> <dbl>  <dbl>
##  1 JoshPaciorek   #gogreen           170 0.0204   4.25 0.0868
##  2 USTradeRep     ustr               147 0.0213   3.56 0.0757
##  3 DeptVetAffairs #vantagepoint      762 0.0173   3.56 0.0614
##  4 DeptofDefense  #knowyourmil       800 0.0185   3.15 0.0584
##  5 DanScavino     #trumptrain        655 0.0201   2.86 0.0575
##  6 USUN           @ambassadorpower   580 0.0154   3.56 0.0548
##  7 USTreasury     lew                690 0.0183   2.86 0.0523
##  8 HUDgov         hud                566 0.0196   2.30 0.0451
##  9 OMBPress       omb                 38 0.0228   1.95 0.0444
## 10 SecElaineChao  'can                 1 0.00990  4.25 0.0421
## # ... with 226,400 more rows
…
{% highlight r %}
library(widyr)

# Find similarities between screen names
# upper = FALSE specifies that we don't want both A-B and B-A matches
word_tf_idf %>%
  pairwise_similarity(screen_name, word, tf_idf, upper = FALSE, sort = TRUE)
{% endhighlight %}



{% highlight text %}
## # A tibble: 2,415 x 3
##    item1          item2           similarity
##    <chr>          <chr>                <dbl>
##  1 VPComDir       VPPressSec           0.582
##  2 DeptVetAffairs SecShulkin           0.548
##  3 ENERGY         SecretaryPerry       0.472
##  4 HUDgov         SecretaryCarson      0.440
##  5 usedgov        BetsyDeVosED         0.417
##  6 Interior       SecretaryZinke       0.386
##  7 SecPriceMD     SecAzar              0.381
##  8 SecPompeo      StateDept            0.347
##  9 VPPressSec     VP                   0.343
## 10 USDA           SecretarySonny       0.337
## # ... with 2,405 more rows
…
