…
# Gather into one tall data frame of scores, and calculate the digit
# The dataset has a couple games from before 1978, but only a few per year
scores <- games %>%
  filter(season >= 1978) %>%
  gather(type, score, home_score, visitors_score) %>%
  mutate(digit = score %% 10)

scores
{% endhighlight %}



{% highlight text %}
## # A tibble: 18,148 x 8
##    season  week kickoff             home_team  visitin… type   score digit
##     <int> <int> <dttm>              <chr>      <chr>    <chr>  <int> <dbl>
##  1   1978     1 1978-09-02 00:00:00 Buccaneers Giants   home_…    13  3.00
##  2   1978     1 1978-09-03 00:00:00 Bears      Cardina… home_…    17  7.00
##  3   1978     1 1978-09-03 00:00:00 Bengals    Chiefs   home_…    23  3.00
##  4   1978     1 1978-09-03 00:00:00 Bills      Steelers home_…    17  7.00
##  5   1978     1 1978-09-03 00:00:00 Broncos    Raiders  home_…    14  4.00
##  6   1978     1 1978-09-03 00:00:00 Browns     49ers    home_…    24  4.00
##  7   1978     1 1978-09-03 00:00:00 Eagles     Rams     home_…    14  4.00
##  8   1978     1 1978-09-03 00:00:00 Falcons    Oilers   home_…    20  0   
##  9   1978     1 1978-09-03 00:00:00 Jets       Dolphins home_…    33  3.00
## 10   1978     1 1978-09-03 00:00:00 Lions      Packers  home_…     7  7.00
## # ... with 18,138 more rows
…
This gives us a set of over 18,000 football scores (from over 9,000 games) we can analyze.

First we could ask what the most common scores are. (If you're a football fan, you may want to try guessing before you look at them!)


{% highlight r %}
scores %>%
  count(score, sort = TRUE)
{% endhighlight %}



{% highlight text %}
## # A tibble: 60 x 2
##    score     n
##    <int> <int>
##  1    17  1412
##  2    20  1197
##  3    24  1189
##  4    10  1089
##  5    13   952
##  6    14   946
##  7    27   931
##  8    21   810
##  9    31   781
## 10    23   754
## # ... with 50 more rows
…
