…
We first sort by the stock symbol[^sortsymbol] and by the *descending* date. We also group by the symbol, which means we'll be looking at changes within each stock.


{% highlight r %}
stock_prices %>%
  arrange(symbol, desc(date)) %>%
  group_by(symbol) %>%
  mutate(highest_future = cummax(close),
         lowest_future = cummin(close))
{% endhighlight %}



{% highlight text %}
## # A tibble: 9,922 x 5
## # Groups:   symbol [4]
##    symbol date       close highest_future lowest_future
##    <chr>  <date>     <dbl>          <dbl>         <dbl>
##  1 AAPL   2019-12-23  284             284          284 
##  2 AAPL   2019-12-20  279.            284          279.
##  3 AAPL   2019-12-19  280.            284          279.
##  4 AAPL   2019-12-18  280.            284          279.
##  5 AAPL   2019-12-17  280.            284          279.
##  6 AAPL   2019-12-16  280.            284          279.
##  7 AAPL   2019-12-13  275.            284          275.
##  8 AAPL   2019-12-12  271.            284          271.
##  9 AAPL   2019-12-11  271.            284          271.
## 10 AAPL   2019-12-10  268.            284          268.
## # … with 9,912 more rows
…
