…
sim_steps
{% endhighlight %}



{% highlight text %}
## # A tibble: 50,000,000 x 5
##    trial  step direction position  seat
##    <int> <int>     <dbl>    <dbl> <dbl>
##  1     1     1         1        1     1
##  2     1     2        -1        0     0
##  3     1     3        -1       -1    19
##  4     1     4         1        0     0
##  5     1     5        -1       -1    19
##  6     1     6         1        0     0
##  7     1     7        -1       -1    19
##  8     1     8         1        0     0
##  9     1     9         1        1     1
## 10     1    10         1        2     2
## # … with 49,999,990 more rows
…
How long does it take for the cranberry sauce to reach each seat for the *first* time? We can use `distinct()` with `.keep_all = TRUE` to answer that: we keep the first time each seat appears in each trial. (We also filter out seat 0, which is you, because you *start* with the cranberry sauce on step 0).


{% highlight r %}
sim <- sim_steps %>%
  distinct(trial, seat, .keep_all = TRUE) %>%
  filter(seat != 0)

sim
{% endhighlight %}



{% highlight text %}
## # A tibble: 949,995 x 5
##    trial  step direction position  seat
##    <int> <int>     <dbl>    <dbl> <dbl>
##  1     1     1         1        1     1
##  2     1     3        -1       -1    19
##  3     1    10         1        2     2
##  4     1    14        -1       -2    18
##  5     1    43        -1       -3    17
##  6     1    50        -1       -4    16
##  7     1    63        -1       -5    15
##  8     1    64        -1       -6    14
##  9     1    65        -1       -7    13
## 10     1    66        -1       -8    12
## # … with 949,985 more rows
…
