…
sim <- crossing(trial = 1:100000,
                probability = seq(.01, 1, .01)) %>%
  mutate(num_flips = rbinom(n(), 4, probability),
         num_tails = rbinom(n(), num_flips, .5),
         set_free = num_flips != 0 & num_tails == 0)

sim
{% endhighlight %}



{% highlight text %}
## # A tibble: 10,000,000 x 5
##    trial probability num_flips num_tails set_free
##    <int>       <dbl>     <int>     <int> <lgl>   
##  1     1      0.01           0         0 FALSE   
##  2     1      0.02           0         0 FALSE   
##  3     1      0.03           0         0 FALSE   
##  4     1      0.04           0         0 FALSE   
##  5     1      0.05           0         0 FALSE   
##  6     1      0.06           1         0 TRUE    
##  7     1      0.0700         0         0 FALSE   
##  8     1      0.08           0         0 FALSE   
##  9     1      0.09           1         0 TRUE    
## 10     1      0.10           0         0 FALSE   
## # … with 9,999,990 more rows
…
This curve makes some intuitive sense. If the probability of flipping is too low, there's a high risk that nobody flips a coin, but if the probability is too high it approaches $$\frac{1}{16}$$. We also knew the peak couldn't be above 50%, since at least one coin will have to get flipped.


{% highlight r %}
summarized %>%
  arrange(desc(pct_free))
{% endhighlight %}



{% highlight text %}
## # A tibble: 100 x 2
##    probability pct_free
##          <dbl>    <dbl>
##  1        0.35    0.286
##  2        0.37    0.286
##  3        0.36    0.285
##  4        0.3     0.284
##  5        0.34    0.284
##  6        0.32    0.283
##  7        0.33    0.283
##  8        0.31    0.282
##  9        0.38    0.282
## 10        0.39    0.282
## # … with 90 more rows
…
