…
# Note that if there are 1 or 2 flips, the probability is 100%
sim <- crossing(trial = seq_len(10000),
                sequence_length = seq(3, 51, 2)) %>%
  mutate(flips = map(sequence_length, rbinom, 1, .5)) %>%
  mutate(no_three = map_lgl(flips, no_three_heads)) %>%
  group_by(sequence_length) %>%
  summarize(chance_no_three = mean(no_three))

sim
{% endhighlight %}



{% highlight text %}
## # A tibble: 25 x 2
##    sequence_length chance_no_three
##              <dbl>           <dbl>
##  1               3           0.874
##  2               5           0.744
##  3               7           0.635
##  4               9           0.528
##  5              11           0.452
##  6              13           0.387
##  7              15           0.323
##  8              17           0.280
##  9              19           0.230
## 10              21           0.193
## # … with 15 more rows
…
feller_seq
{% endhighlight %}



{% highlight text %}
## # A tibble: 60 x 3
## # Groups:   n [20]
##        n     k     p
##    <dbl> <int> <dbl>
##  1     2     2 0.751
##  2     2     3 1    
##  3     2     4 1    
##  4     4     2 0.497
##  5     4     3 0.811
##  6     4     4 0.934
##  7     6     2 0.337
##  8     6     3 0.692
##  9     6     4 0.869
## 10     8     2 0.214
## # … with 50 more rows
…
