…
words
{% endhighlight %}



{% highlight text %}
## # A tibble: 44,585 x 5
##    word             word_length letters   unique_letters points
##    <chr>                  <int> <list>             <int>  <dbl>
##  1 antitotalitarian          16 <chr [7]>              7     23
##  2 anticlimactical           15 <chr [7]>              7     22
##  3 inconveniencing           15 <chr [7]>              7     22
##  4 interconnection           15 <chr [7]>              7     22
##  5 micrometeoritic           15 <chr [7]>              7     22
##  6 nationalization           15 <chr [7]>              7     22
##  7 nonindependence           15 <chr [7]>              7     22
##  8 nonintervention           15 <chr [7]>              7     22
##  9 nontotalitarian           15 <chr [7]>              7     22
## 10 overengineering           15 <chr [7]>              7     22
## # … with 44,575 more rows
…
  words %>%
    filter(str_detect(word, center_letter)) %>%
    mutate(invalid_letters = map(letters, setdiff, all_letters)) %>%
    filter(lengths(invalid_letters) == 0) %>%
    select(word, points)
}

honeycomb_words <- get_words("g", c("a", "p", "x", "m", "e", "l"))
honeycomb_words
{% endhighlight %}



{% highlight text %}
## # A tibble: 43 x 2
##    word    points
##    <chr>    <dbl>
##  1 amalgam      7
##  2 agapae       6
##  3 agleam       6
##  4 allege       6
##  5 gaggle       6
##  6 galeae       6
##  7 gemmae       6
##  8 pelage       6
##  9 plagal       6
## 10 agama        5
## # … with 33 more rows
…
letters_summarized <- letters_unnested %>%
  group_by(letter) %>%
  summarize(n_words = n(),
            n_points = sum(points)) %>%
  arrange(desc(n_points))

letters_summarized
{% endhighlight %}



{% highlight text %}
## # A tibble: 25 x 3
##    letter n_words n_points
##    <chr>    <int>    <dbl>
##  1 e        28203   275039
##  2 i        21128   220473
##  3 a        21719   214490
##  4 r        20977   209803
##  5 n        18735   197485
##  6 t        16232   170953
##  7 l        16503   164552
##  8 o        16038   160863
##  9 d        13894   137491
## 10 c        11644   123224
## # … with 15 more rows
…
# Tidy the matrix
puzzle_solutions <- reshape2::melt(as.matrix(scores),
                          varnames = c("combination", "center"),
                          value.name = "score") %>%
  as_tibble() %>%
  filter(score > 0) %>%
  arrange(desc(score))

puzzle_solutions
{% endhighlight %}



{% highlight text %}
## # A tibble: 55,902 x 3
##    combination   center score
##    <fct>         <fct>  <dbl>
##  1 a,e,g,i,n,r,t r       3898
##  2 a,e,g,i,n,r,t n       3782
##  3 a,e,g,i,n,r,t e       3769
##  4 a,d,e,i,n,r,t e       3672
##  5 a,e,g,i,n,r,t t       3421
##  6 a,e,g,i,n,r,t i       3406
##  7 a,e,g,i,n,r,t a       3372
##  8 a,d,e,g,i,n,r e       3271
##  9 a,d,e,g,i,n,r r       3236
## 10 a,d,e,i,l,r,t e       3194
## # … with 55,892 more rows
…
With this `scores` matrix, we can confirm our finding of the highest combination, center and score.  It also shows that the top three puzzles all have the same combination (but different center letters).

This is pretty fast (about 25 seconds for me), and runs without any heuristics. It also lets us discover the *worst* score!


{% highlight r %}
puzzle_solutions %>%
  arrange(score)
{% endhighlight %}



{% highlight text %}
## # A tibble: 55,902 x 3
##    combination   center score
##    <fct>         <fct>  <dbl>
##  1 c,i,n,o,p,r,x x         14
##  2 b,i,m,n,r,u,v v         15
##  3 b,e,j,k,o,u,x x         15
##  4 c,f,l,n,o,u,x x         15
##  5 a,c,e,i,q,u,z z         15
##  6 d,f,h,n,o,u,x x         16
##  7 e,i,o,q,t,u,x x         16
##  8 a,b,d,i,j,r,y j         17
##  9 a,c,d,j,q,r,u q         17
## 10 b,h,i,l,p,u,w w         17
## # … with 55,892 more rows
…
