…
sim_waiting <- crossing(trial = 1:25000,
         observation = 1:300) %>%
  mutate(waiting = rexp(n(), observation)) %>%
  group_by(trial) %>%
  mutate(cumulative = cumsum(waiting)) %>%
  ungroup()

sim_waiting
{% endhighlight %}



{% highlight text %}
## # A tibble: 7,500,000 x 4
##    trial observation waiting cumulative
##    <int>       <int>   <dbl>      <dbl>
##  1     1           1  0.294       0.294
##  2     1           2  0.635       0.929
##  3     1           3  0.0790      1.01 
##  4     1           4  0.185       1.19 
##  5     1           5  0.284       1.48 
##  6     1           6  0.211       1.69 
##  7     1           7  0.838       2.53 
##  8     1           8  0.0301      2.56 
##  9     1           9  0.0588      2.61 
## 10     1          10  0.0488      2.66 
## # … with 7,499,990 more rows
…
